{
  "content": [
    {
      "id": 123456748,
      "mchtNo": "001310193990002",
      "mchtName": "lichanggui",
      "isCoMarketing": "2",
      "kind": "B1",
      "status": "0",
      "branchName": "省代_重庆_蒋元伟（重庆筷子科技有限公司）",
      "expandName": null,
      "expandinvitedcode": null,
      "userName": "接铭彤",
      "phone": "18700009006",
      "mccName": "未列入其他代码的其他个人服务",
      "regionName": "浦东新区",
      "discName": "25554545",
      "brhCode": "014009",
      "registeDate": "20140513",
      "finalVertifyDate": "20140513000000",
      "mchtSource": "3",
      "oneAgent": "省代_重庆_蒋元伟（重庆筷子科技有限公司）",
      "inviteStatus": "5",
      "certFlag": "1",
      "mchtServiceS0Status": "1",
      "mchtLevel": null,
      "certificateCounts": "111",
      "isInBlackList": "0",
      "idNo": "410305197011034027",
      "licenceNo": null,
      "maxDeviceNum": "5",
      "mchtRank": "P011"
    },
    {
      "id": 20005349,
      "mchtNo": "015440395005025",
      "mchtName": "长荣",
      "isCoMarketing": "2",
      "kind": "D1",
      "status": "0",
      "branchName": "虚拟直销机构",
      "expandName": "健康<br>T852773",
      "expandinvitedcode": "T852773",
      "userName": "斤斤计较",
      "phone": "13532216677",
      "mccName": "各类杂货店、便利店",
      "regionName": "南山区",
      "discName": "MPOS借记0.55%/25元，贷记0.68%",
      "brhCode": "015001",
      "registeDate": "20160927102215",
      "finalVertifyDate": null,
      "mchtSource": "2",
      "oneAgent": "虚拟直销机构",
      "inviteStatus": "4",
      "certFlag": "1",
      "mchtServiceS0Status": "0",
      "mchtLevel": null,
      "certificateCounts": "000",
      "isInBlackList": "0",
      "idNo": "542100197601238942",
      "licenceNo": null,
      "maxDeviceNum": "5",
      "mchtRank": "P012"
    },
    {
      "id": 20005348,
      "mchtNo": "015440395005024",
      "mchtName": "长荣",
      "isCoMarketing": "2",
      "kind": "D1",
      "status": "2",
      "branchName": "虚拟直销机构",
      "expandName": "健康<br>T852773",
      "expandinvitedcode": "T852773",
      "userName": "斤斤计较",
      "phone": "13532216676",
      "mccName": "各类杂货店、便利店",
      "regionName": "南山区",
      "discName": "MPOS借记0.55%/25元，贷记0.68%",
      "brhCode": "015001",
      "registeDate": "20160927101505",
      "finalVertifyDate": null,
      "mchtSource": "2",
      "oneAgent": "虚拟直销机构",
      "inviteStatus": "0",
      "certFlag": "1",
      "mchtServiceS0Status": null,
      "mchtLevel": null,
      "certificateCounts": "000",
      "isInBlackList": "0",
      "idNo": "542100197601238941",
      "licenceNo": null,
      "maxDeviceNum": "5",
      "mchtRank": "P001"
    },
    {
      "id": 20005347,
      "mchtNo": "015440395005023",
      "mchtName": "长荣",
      "isCoMarketing": "2",
      "kind": "D1",
      "status": "2",
      "branchName": "虚拟直销机构",
      "expandName": "健康<br>T852773",
      "expandinvitedcode": "T852773",
      "userName": "斤斤计较",
      "phone": "13532216675",
      "mccName": "各类杂货店、便利店",
      "regionName": "南山区",
      "discName": "MPOS借记0.55%/25元，贷记0.68%",
      "brhCode": "015001",
      "registeDate": "20160927101118",
      "finalVertifyDate": null,
      "mchtSource": "2",
      "oneAgent": "虚拟直销机构",
      "inviteStatus": "0",
      "certFlag": "1",
      "mchtServiceS0Status": null,
      "mchtLevel": null,
      "certificateCounts": "000",
      "isInBlackList": "0",
      "idNo": "542100197601238940",
      "licenceNo": null,
      "maxDeviceNum": "5",
      "mchtRank": "P001"
    },
    {
      "id": 20005346,
      "mchtNo": "015440395005022",
      "mchtName": "长荣",
      "isCoMarketing": "2",
      "kind": "E1",
      "status": "2",
      "branchName": "虚拟直销机构",
      "expandName": "健康<br>T852773",
      "expandinvitedcode": "T852773",
      "userName": "斤斤计较",
      "phone": "13532216674",
      "mccName": "各类杂货店、便利店",
      "regionName": "南山区",
      "discName": "MPOS借记0.55%/25元，贷记0.68%",
      "brhCode": "015001",
      "registeDate": "20160927095245",
      "finalVertifyDate": null,
      "mchtSource": "2",
      "oneAgent": "虚拟直销机构",
      "inviteStatus": "0",
      "certFlag": "1",
      "mchtServiceS0Status": "0",
      "mchtLevel": null,
      "certificateCounts": "000",
      "isInBlackList": "0",
      "idNo": "542100197601238949",
      "licenceNo": null,
      "maxDeviceNum": "5",
      "mchtRank": "P001"
    },
    {
      "id": 20005345,
      "mchtNo": "001440395005021",
      "mchtName": "二维十",
      "isCoMarketing": null,
      "kind": "E1",
      "status": "0",
      "branchName": "梦付宝-员工之家",
      "expandName": "刘秋娟<br>D569204",
      "expandinvitedcode": "D569204",
      "userName": "二维十",
      "phone": "13330310010",
      "mccName": "药房、药店",
      "regionName": "南山区",
      "discName": null,
      "brhCode": "001001",
      "registeDate": "20160926180029",
      "finalVertifyDate": "20160926180357",
      "mchtSource": "2",
      "oneAgent": "梦付宝-员工之家",
      "inviteStatus": "0",
      "certFlag": "1",
      "mchtServiceS0Status": "0",
      "mchtLevel": null,
      "certificateCounts": "000",
      "isInBlackList": "0",
      "idNo": "131002198204223409",
      "licenceNo": "312423534646547777",
      "maxDeviceNum": "5",
      "mchtRank": "P012"
    },
    {
      "id": 20005344,
      "mchtNo": "001440395005020",
      "mchtName": "二维九",
      "isCoMarketing": "2",
      "kind": "E1",
      "status": "0",
      "branchName": "梦付宝-员工之家",
      "expandName": "刘秋娟<br>D569204",
      "expandinvitedcode": "D569204",
      "userName": "二维九",
      "phone": "13330310009",
      "mccName": "药房、药店",
      "regionName": "南山区",
      "discName": null,
      "brhCode": "001001",
      "registeDate": "20160926173806",
      "finalVertifyDate": "20160926173810",
      "mchtSource": "2",
      "oneAgent": "梦付宝-员工之家",
      "inviteStatus": "0",
      "certFlag": "1",
      "mchtServiceS0Status": "0",
      "mchtLevel": null,
      "certificateCounts": "000",
      "isInBlackList": "0",
      "idNo": "131002198204223409",
      "licenceNo": null,
      "maxDeviceNum": "5",
      "mchtRank": "P012"
    },
    {
      "id": 20005343,
      "mchtNo": "001440395005019",
      "mchtName": "二维八",
      "isCoMarketing": "2",
      "kind": "E1",
      "status": "0",
      "branchName": "梦付宝-员工之家",
      "expandName": "刘秋娟<br>D569204",
      "expandinvitedcode": "D569204",
      "userName": "二维八",
      "phone": "13330310008",
      "mccName": "药房、药店",
      "regionName": "南山区",
      "discName": null,
      "brhCode": "001001",
      "registeDate": "20160926173318",
      "finalVertifyDate": "20160926173405",
      "mchtSource": "2",
      "oneAgent": "梦付宝-员工之家",
      "inviteStatus": "0",
      "certFlag": "1",
      "mchtServiceS0Status": "0",
      "mchtLevel": null,
      "certificateCounts": "000",
      "isInBlackList": "0",
      "idNo": "131002198204223409",
      "licenceNo": null,
      "maxDeviceNum": "5",
      "mchtRank": "P012"
    },
    {
      "id": 20005342,
      "mchtNo": "001440395005018",
      "mchtName": "二维七",
      "isCoMarketing": "2",
      "kind": "E1",
      "status": "0",
      "branchName": "梦付宝-员工之家",
      "expandName": "刘秋娟<br>D569204",
      "expandinvitedcode": "D569204",
      "userName": "二维七",
      "phone": "13330310007",
      "mccName": "药房、药店",
      "regionName": "南山区",
      "discName": null,
      "brhCode": "001001",
      "registeDate": "20160926170712",
      "finalVertifyDate": "20160926170813",
      "mchtSource": "2",
      "oneAgent": "梦付宝-员工之家",
      "inviteStatus": "0",
      "certFlag": "1",
      "mchtServiceS0Status": null,
      "mchtLevel": null,
      "certificateCounts": "000",
      "isInBlackList": "0",
      "idNo": "131002198204223409",
      "licenceNo": null,
      "maxDeviceNum": "5",
      "mchtRank": "P012"
    },
    {
      "id": 20005341,
      "mchtNo": "001440395005017",
      "mchtName": "二维刘",
      "isCoMarketing": "2",
      "kind": "E1",
      "status": "0",
      "branchName": "梦付宝-员工之家",
      "expandName": "刘秋娟<br>D569204",
      "expandinvitedcode": "D569204",
      "userName": "二维六",
      "phone": "13330310006",
      "mccName": "药房、药店",
      "regionName": "南山区",
      "discName": null,
      "brhCode": "001001",
      "registeDate": "20160926165339",
      "finalVertifyDate": "20160926165437",
      "mchtSource": "2",
      "oneAgent": "梦付宝-员工之家",
      "inviteStatus": "5",
      "certFlag": "1",
      "mchtServiceS0Status": "1",
      "mchtLevel": null,
      "certificateCounts": "000",
      "isInBlackList": "0",
      "idNo": "131002198204223409",
      "licenceNo": null,
      "maxDeviceNum": "5",
      "mchtRank": "P012"
    },
    {
      "id": 20005340,
      "mchtNo": "001440395005016",
      "mchtName": "二维一",
      "isCoMarketing": "2",
      "kind": "E1",
      "status": "0",
      "branchName": "梦付宝-员工之家",
      "expandName": "刘秋娟<br>D569204",
      "expandinvitedcode": "D569204",
      "userName": "二维一",
      "phone": "13330310005",
      "mccName": "药房、药店",
      "regionName": "南山区",
      "discName": null,
      "brhCode": "001001",
      "registeDate": "20160926165011",
      "finalVertifyDate": "20160926165012",
      "mchtSource": "2",
      "oneAgent": "梦付宝-员工之家",
      "inviteStatus": "0",
      "certFlag": "1",
      "mchtServiceS0Status": null,
      "mchtLevel": null,
      "certificateCounts": "000",
      "isInBlackList": "0",
      "idNo": "131002198204223409",
      "licenceNo": null,
      "maxDeviceNum": "5",
      "mchtRank": "P001"
    },
    {
      "id": 20005339,
      "mchtNo": "001440395005015",
      "mchtName": "二维一",
      "isCoMarketing": "2",
      "kind": "E1",
      "status": "0",
      "branchName": "梦付宝-员工之家",
      "expandName": "刘秋娟<br>D569204",
      "expandinvitedcode": "D569204",
      "userName": "二维一",
      "phone": "13330310003",
      "mccName": "药房、药店",
      "regionName": "南山区",
      "discName": null,
      "brhCode": "001001",
      "registeDate": "20160926164549",
      "finalVertifyDate": "20160926164550",
      "mchtSource": "2",
      "oneAgent": "梦付宝-员工之家",
      "inviteStatus": "0",
      "certFlag": "1",
      "mchtServiceS0Status": null,
      "mchtLevel": null,
      "certificateCounts": "000",
      "isInBlackList": "0",
      "idNo": "131002198204223409",
      "licenceNo": null,
      "maxDeviceNum": "5",
      "mchtRank": "P001"
    },
    {
      "id": 20005338,
      "mchtNo": "015440395005014",
      "mchtName": "长荣",
      "isCoMarketing": "2",
      "kind": "E1",
      "status": "0",
      "branchName": "虚拟直销机构",
      "expandName": "健康<br>T852773",
      "expandinvitedcode": "T852773",
      "userName": "斤斤计较",
      "phone": "13532216673",
      "mccName": "各类杂货店、便利店",
      "regionName": "南山区",
      "discName": "MPOS借记0.55%/25元，贷记0.68%",
      "brhCode": "015001",
      "registeDate": "20160926163711",
      "finalVertifyDate": "20160926163712",
      "mchtSource": "2",
      "oneAgent": "虚拟直销机构",
      "inviteStatus": "4",
      "certFlag": "1",
      "mchtServiceS0Status": "0",
      "mchtLevel": null,
      "certificateCounts": "000",
      "isInBlackList": "0",
      "idNo": "542100197601238948",
      "licenceNo": null,
      "maxDeviceNum": "5",
      "mchtRank": "P012"
    },
    {
      "id": 20005337,
      "mchtNo": "015440395005013",
      "mchtName": "长荣",
      "isCoMarketing": "2",
      "kind": "D1",
      "status": "0",
      "branchName": "虚拟直销机构",
      "expandName": "健康<br>T852773",
      "expandinvitedcode": "T852773",
      "userName": "斤斤计较",
      "phone": "13532216672",
      "mccName": "各类杂货店、便利店",
      "regionName": "南山区",
      "discName": "MPOS借记0.55%/25元，贷记0.68%",
      "brhCode": "015001",
      "registeDate": "20160926162805",
      "finalVertifyDate": "20160926162806",
      "mchtSource": "2",
      "oneAgent": "虚拟直销机构",
      "inviteStatus": "4",
      "certFlag": "1",
      "mchtServiceS0Status": "0",
      "mchtLevel": null,
      "certificateCounts": "000",
      "isInBlackList": "0",
      "idNo": "542100197601238947",
      "licenceNo": null,
      "maxDeviceNum": "5",
      "mchtRank": "P012"
    },
    {
      "id": 20005336,
      "mchtNo": "001440395005012",
      "mchtName": "二维一",
      "isCoMarketing": "2",
      "kind": "E1",
      "status": "0",
      "branchName": "梦付宝-员工之家",
      "expandName": "刘秋娟<br>D569204",
      "expandinvitedcode": "D569204",
      "userName": "二维一",
      "phone": "13330310002",
      "mccName": "药房、药店",
      "regionName": "南山区",
      "discName": null,
      "brhCode": "001001",
      "registeDate": "20160926162645",
      "finalVertifyDate": "20160926162645",
      "mchtSource": "2",
      "oneAgent": "梦付宝-员工之家",
      "inviteStatus": "0",
      "certFlag": "1",
      "mchtServiceS0Status": null,
      "mchtLevel": null,
      "certificateCounts": "000",
      "isInBlackList": "0",
      "idNo": "131002198204223409",
      "licenceNo": null,
      "maxDeviceNum": "5",
      "mchtRank": "P012"
    },
    {
      "id": 20005335,
      "mchtNo": "015440395005011",
      "mchtName": "叶家麦",
      "isCoMarketing": "2",
      "kind": "E1",
      "status": "0",
      "branchName": "虚拟直销机构",
      "expandName": "温帆<br>T272555",
      "expandinvitedcode": "T272555",
      "userName": "叶雪盐",
      "phone": "15512122122",
      "mccName": "各类杂货店、便利店",
      "regionName": "南山区",
      "discName": "MPOS借记0.55%/25元，贷记0.68%",
      "brhCode": "015001",
      "registeDate": "20160926162405",
      "finalVertifyDate": "20160926162406",
      "mchtSource": "2",
      "oneAgent": "虚拟直销机构",
      "inviteStatus": "0",
      "certFlag": "1",
      "mchtServiceS0Status": null,
      "mchtLevel": null,
      "certificateCounts": "000",
      "isInBlackList": "0",
      "idNo": "370101200001010211",
      "licenceNo": null,
      "maxDeviceNum": "5",
      "mchtRank": "P001"
    },
    {
      "id": 20005334,
      "mchtNo": "015440395005010",
      "mchtName": "叶家面店",
      "isCoMarketing": "2",
      "kind": "E1",
      "status": "0",
      "branchName": "虚拟直销机构",
      "expandName": "温帆<br>T272555",
      "expandinvitedcode": "T272555",
      "userName": "叶水离",
      "phone": "15512122121",
      "mccName": "各类杂货店、便利店",
      "regionName": "南山区",
      "discName": "MPOS借记0.55%/25元，贷记0.68%",
      "brhCode": "015001",
      "registeDate": "20160926162036",
      "finalVertifyDate": "20160926162037",
      "mchtSource": "2",
      "oneAgent": "虚拟直销机构",
      "inviteStatus": "0",
      "certFlag": "1",
      "mchtServiceS0Status": null,
      "mchtLevel": null,
      "certificateCounts": "000",
      "isInBlackList": "0",
      "idNo": "370101200001010676",
      "licenceNo": null,
      "maxDeviceNum": "5",
      "mchtRank": "P001"
    },
    {
      "id": 20005333,
      "mchtNo": "015440395005009",
      "mchtName": "叶家的奶茶店",
      "isCoMarketing": "2",
      "kind": "D1",
      "status": "0",
      "branchName": "虚拟直销机构",
      "expandName": "温帆<br>T272555",
      "expandinvitedcode": "T272555",
      "userName": "叶飘飘",
      "phone": "18566635984",
      "mccName": "各类杂货店、便利店",
      "regionName": "南山区",
      "discName": "MPOS借记0.55%/25元，贷记0.68%",
      "brhCode": "015001",
      "registeDate": "20160926161348",
      "finalVertifyDate": "20160926161349",
      "mchtSource": "2",
      "oneAgent": "虚拟直销机构",
      "inviteStatus": "0",
      "certFlag": "1",
      "mchtServiceS0Status": null,
      "mchtLevel": null,
      "certificateCounts": "000",
      "isInBlackList": "0",
      "idNo": "370101200001012575",
      "licenceNo": null,
      "maxDeviceNum": "5",
      "mchtRank": "P001"
    },
    {
      "id": 20005332,
      "mchtNo": "015440395005008",
      "mchtName": "急急急",
      "isCoMarketing": "2",
      "kind": "D1",
      "status": "0",
      "branchName": "虚拟直销机构",
      "expandName": "健康<br>T852773",
      "expandinvitedcode": "T852773",
      "userName": "斤斤计较",
      "phone": "13532216671",
      "mccName": "各类杂货店、便利店",
      "regionName": "南山区",
      "discName": "MPOS借记0.55%/25元，贷记0.68%",
      "brhCode": "015001",
      "registeDate": "20160926160203",
      "finalVertifyDate": "20160926160205",
      "mchtSource": "2",
      "oneAgent": "虚拟直销机构",
      "inviteStatus": "0",
      "certFlag": "1",
      "mchtServiceS0Status": null,
      "mchtLevel": null,
      "certificateCounts": "000",
      "isInBlackList": "0",
      "idNo": "542100197601238946",
      "licenceNo": null,
      "maxDeviceNum": "5",
      "mchtRank": "P001"
    },
    {
      "id": 20005331,
      "mchtNo": "015440395005007",
      "mchtName": "096046符丹",
      "isCoMarketing": "2",
      "kind": "B1",
      "status": "0",
      "branchName": "虚拟直销机构",
      "expandName": "朱博斐<br>T824776",
      "expandinvitedcode": "T824776",
      "userName": "符丹",
      "phone": "13823556194",
      "mccName": "其他专门零售店",
      "regionName": "南山区",
      "discName": "MPOS借记0.55%/25元，贷记0.68%",
      "brhCode": "015001",
      "registeDate": "20160926152223",
      "finalVertifyDate": "20160926152542",
      "mchtSource": "2",
      "oneAgent": "虚拟直销机构",
      "inviteStatus": "4",
      "certFlag": "1",
      "mchtServiceS0Status": "0",
      "mchtLevel": null,
      "certificateCounts": "000",
      "isInBlackList": "0",
      "idNo": "430602199107096046",
      "licenceNo": null,
      "maxDeviceNum": "5",
      "mchtRank": "P004"
    },
    {
      "id": 20005330,
      "mchtNo": "015440395005006",
      "mchtName": "叶家大宅子",
      "isCoMarketing": "2",
      "kind": "D1",
      "status": "0",
      "branchName": "虚拟直销机构",
      "expandName": "温帆<br>T272555",
      "expandinvitedcode": "T272555",
      "userName": "叶火苗",
      "phone": "18811112222",
      "mccName": "各类杂货店、便利店",
      "regionName": "南山区",
      "discName": "MPOS借记0.55%/25元，贷记0.68%",
      "brhCode": "015001",
      "registeDate": "20160926151054",
      "finalVertifyDate": "20160926151057",
      "mchtSource": "2",
      "oneAgent": "虚拟直销机构",
      "inviteStatus": "0",
      "certFlag": "1",
      "mchtServiceS0Status": null,
      "mchtLevel": null,
      "certificateCounts": "000",
      "isInBlackList": "0",
      "idNo": "370101200001011759",
      "licenceNo": null,
      "maxDeviceNum": "5",
      "mchtRank": "P001"
    },
    {
      "id": 20005329,
      "mchtNo": "015440395005005",
      "mchtName": "急急急",
      "isCoMarketing": "2",
      "kind": "E1",
      "status": "0",
      "branchName": "虚拟直销机构",
      "expandName": "健康<br>T852773",
      "expandinvitedcode": "T852773",
      "userName": "斤斤计较",
      "phone": "13532216670",
      "mccName": "各类杂货店、便利店",
      "regionName": "南山区",
      "discName": "MPOS借记0.55%/25元，贷记0.68%",
      "brhCode": "015001",
      "registeDate": "20160926145623",
      "finalVertifyDate": "20160926145628",
      "mchtSource": "2",
      "oneAgent": "虚拟直销机构",
      "inviteStatus": "0",
      "certFlag": "1",
      "mchtServiceS0Status": null,
      "mchtLevel": null,
      "certificateCounts": "000",
      "isInBlackList": "0",
      "idNo": "542100197601238945",
      "licenceNo": null,
      "maxDeviceNum": "5",
      "mchtRank": "P001"
    },
    {
      "id": 20005328,
      "mchtNo": "015440395005004",
      "mchtName": "急急急",
      "isCoMarketing": "2",
      "kind": "E1",
      "status": "0",
      "branchName": "虚拟直销机构",
      "expandName": "健康<br>T852773",
      "expandinvitedcode": "T852773",
      "userName": "斤斤计较",
      "phone": "13532216669",
      "mccName": "各类杂货店、便利店",
      "regionName": "南山区",
      "discName": "MPOS借记0.55%/25元，贷记0.68%",
      "brhCode": "015001",
      "registeDate": "20160926143220",
      "finalVertifyDate": "20160926143225",
      "mchtSource": "2",
      "oneAgent": "虚拟直销机构",
      "inviteStatus": "4",
      "certFlag": "1",
      "mchtServiceS0Status": "0",
      "mchtLevel": null,
      "certificateCounts": "000",
      "isInBlackList": "0",
      "idNo": "542100197601238944",
      "licenceNo": null,
      "maxDeviceNum": "5",
      "mchtRank": "P012"
    },
    {
      "id": 20005327,
      "mchtNo": "001440395005003",
      "mchtName": "二维一",
      "isCoMarketing": "2",
      "kind": "E1",
      "status": "0",
      "branchName": "梦付宝-员工之家",
      "expandName": "刘秋娟<br>D569204",
      "expandinvitedcode": "D569204",
      "userName": "二维一",
      "phone": "13330310001",
      "mccName": "药房、药店",
      "regionName": "南山区",
      "discName": null,
      "brhCode": "001001",
      "registeDate": "20160926142731",
      "finalVertifyDate": "20160926142901",
      "mchtSource": "2",
      "oneAgent": "梦付宝-员工之家",
      "inviteStatus": "0",
      "certFlag": "1",
      "mchtServiceS0Status": null,
      "mchtLevel": null,
      "certificateCounts": "000",
      "isInBlackList": "0",
      "idNo": "131002198204223409",
      "licenceNo": null,
      "maxDeviceNum": "5",
      "mchtRank": "P012"
    },
    {
      "id": 20005326,
      "mchtNo": "015440395005002",
      "mchtName": "急急急",
      "isCoMarketing": "2",
      "kind": "D1",
      "status": "0",
      "branchName": "虚拟直销机构",
      "expandName": "健康<br>T852773",
      "expandinvitedcode": "T852773",
      "userName": "斤斤计较",
      "phone": "13532216668",
      "mccName": "各类杂货店、便利店",
      "regionName": "南山区",
      "discName": "MPOS借记0.55%/25元，贷记0.68%",
      "brhCode": "015001",
      "registeDate": "20160926142601",
      "finalVertifyDate": "20160926171607",
      "mchtSource": "2",
      "oneAgent": "虚拟直销机构",
      "inviteStatus": "4",
      "certFlag": "1",
      "mchtServiceS0Status": "0",
      "mchtLevel": null,
      "certificateCounts": "000",
      "isInBlackList": "0",
      "idNo": "542100197601238943",
      "licenceNo": null,
      "maxDeviceNum": "5",
      "mchtRank": "P012"
    },
    {
      "id": 20005325,
      "mchtNo": "015440395005001",
      "mchtName": "急急急",
      "isCoMarketing": "2",
      "kind": "D1",
      "status": "2",
      "branchName": "虚拟直销机构",
      "expandName": "健康<br>T852773",
      "expandinvitedcode": "T852773",
      "userName": "斤斤计较",
      "phone": "13532216667",
      "mccName": "各类杂货店、便利店",
      "regionName": "南山区",
      "discName": "MPOS借记0.55%/25元，贷记0.68%",
      "brhCode": "015001",
      "registeDate": "20160926142220",
      "finalVertifyDate": null,
      "mchtSource": "2",
      "oneAgent": "虚拟直销机构",
      "inviteStatus": "0",
      "certFlag": "1",
      "mchtServiceS0Status": null,
      "mchtLevel": null,
      "certificateCounts": "000",
      "isInBlackList": "0",
      "idNo": "542100197601238942",
      "licenceNo": null,
      "maxDeviceNum": "5",
      "mchtRank": "P001"
    },
    {
      "id": 20005323,
      "mchtNo": "015440395004999",
      "mchtName": "田泉好哒测试",
      "isCoMarketing": null,
      "kind": "E1",
      "status": "0",
      "branchName": "虚拟直销机构",
      "expandName": "温帆<br>T272555",
      "expandinvitedcode": "T272555",
      "userName": "田泉",
      "phone": "15896992635",
      "mccName": "各类杂货店、便利店",
      "regionName": "南山区",
      "discName": "MPOS借记0.55%/25元，贷记0.68%",
      "brhCode": "015001",
      "registeDate": "20160926113236",
      "finalVertifyDate": "20160926120620",
      "mchtSource": "2",
      "oneAgent": "虚拟直销机构",
      "inviteStatus": "5",
      "certFlag": "1",
      "mchtServiceS0Status": "1",
      "mchtLevel": null,
      "certificateCounts": "000",
      "isInBlackList": "0",
      "idNo": "220722199008183736",
      "licenceNo": "1111111111111",
      "maxDeviceNum": "5",
      "mchtRank": "P012"
    },
    {
      "id": 20005322,
      "mchtNo": "015440395004998",
      "mchtName": "我们在一起",
      "isCoMarketing": "2",
      "kind": "B2",
      "status": "2",
      "branchName": "虚拟直销机构",
      "expandName": "汪洋<br>T623481",
      "expandinvitedcode": "T623481",
      "userName": "结局不能说",
      "phone": "18780983787",
      "mccName": "一般承包商－住宅与商业楼",
      "regionName": "南山区",
      "discName": null,
      "brhCode": "015001",
      "registeDate": "20160926111039",
      "finalVertifyDate": null,
      "mchtSource": "2",
      "oneAgent": "虚拟直销机构",
      "inviteStatus": "0",
      "certFlag": "1",
      "mchtServiceS0Status": null,
      "mchtLevel": null,
      "certificateCounts": "000",
      "isInBlackList": "0",
      "idNo": "320203195804267374",
      "licenceNo": "237056125705041",
      "maxDeviceNum": "5",
      "mchtRank": "P001"
    },
    {
      "id": 20005321,
      "mchtNo": "015440395004997",
      "mchtName": "广东省深圳市宝安区游泳馆",
      "isCoMarketing": "2",
      "kind": "D1",
      "status": "6",
      "branchName": "虚拟直销机构",
      "expandName": "健康<br>T852773",
      "expandinvitedcode": "T852773",
      "userName": "黎家乐",
      "phone": "13532216423",
      "mccName": "各类杂货店、便利店",
      "regionName": "南山区",
      "discName": "MPOS借记0.55%/25元，贷记0.68%",
      "brhCode": "015001",
      "registeDate": "20160926110713",
      "finalVertifyDate": null,
      "mchtSource": "2",
      "oneAgent": "虚拟直销机构",
      "inviteStatus": "0",
      "certFlag": "1",
      "mchtServiceS0Status": null,
      "mchtLevel": null,
      "certificateCounts": "000",
      "isInBlackList": "0",
      "idNo": "140000200512184892",
      "licenceNo": null,
      "maxDeviceNum": "5",
      "mchtRank": "P001"
    },
    {
      "id": 20005320,
      "mchtNo": "015440395004996",
      "mchtName": "我们在一起",
      "isCoMarketing": "2",
      "kind": "B2",
      "status": "0",
      "branchName": "虚拟直销机构",
      "expandName": "汪洋<br>T623481",
      "expandinvitedcode": "T623481",
      "userName": "结局不能说",
      "phone": "18770983787",
      "mccName": "一般承包商－住宅与商业楼",
      "regionName": "南山区",
      "discName": null,
      "brhCode": "015001",
      "registeDate": "20160924182017",
      "finalVertifyDate": "20160926100117",
      "mchtSource": "2",
      "oneAgent": "虚拟直销机构",
      "inviteStatus": "5",
      "certFlag": "1",
      "mchtServiceS0Status": "1",
      "mchtLevel": null,
      "certificateCounts": "100",
      "isInBlackList": "0",
      "idNo": "320203195804267374",
      "licenceNo": "237056125795044",
      "maxDeviceNum": "5",
      "mchtRank": "P010"
    }
  ],
  "ignoreFields": [

  ],
  "statDataMap": {

  },
  "number": 0,
  "size": 30,
  "sort": null,
  "totalElements": 190127,
  "totalPages": 6338,
  "firstPage": true,
  "lastPage": false,
  "numberOfElements": 30
}